Documentation • PaRe
…
Dependency Review

Before we start diving into the dependency usage of glue
we should first establish what our dependency white list even looks
like. We can retrieve our full list of whitelisted dependencies buy
calling the getDefaultPermittedPackages function.

getDefaultPermittedPackages

PaRe::getDefaultPermittedPackages(base = TRUE)
#> # A tibble: 250 × 2
#>    package   version
#>    <chr>     <chr>  
#>  1 base      4.2.2  
#>  2 boot      4.2.2  
#>  3 class     4.2.2  
#>  4 cluster   4.2.2  
#>  5 compiler  4.2.2  
#>  6 datasets  4.2.2  
#>  7 foreign   4.2.2  
#>  8 graphics  4.2.2  
#>  9 grDevices 4.2.2  
#> 10 grid      4.2.2  
#> # … with 240 more rows
…
Package wide function use

PaRe allows you to get insight in the function usage in
a package.

summariseFunctionUse

funsUsed <- PaRe::summariseFunctionUse(
  r_files = list.files(file.path(system.file(package = "PaRe", "glue"), "R"), full.names = TRUE))

funsUsed
#> # A tibble: 419 × 4
#>    r_file   line pkg     fun         
#>    <chr>   <int> <chr>   <chr>       
#>  1 color.R    58 base    function    
#>  2 color.R    58 base    parent.frame
#>  3 color.R    59 unknown glue        
#>  4 color.R    64 base    function    
#>  5 color.R    64 base    parent.frame
#>  6 color.R    65 unknown glue_data   
#>  7 color.R    68 base    function    
#>  8 color.R    69 base    function    
#>  9 color.R    69 base    parse       
#> 10 color.R    69 base    tryCatch    
#> # … with 409 more rows
…
